<svg width="23" height="14" viewBox="0 0 23 14" fill="none" xmlns="http://www.w3.org/2000/svg">
<path d="M12.3507 0.859126C12.2379 0.745375 12.1038 0.655257 11.9562 0.593685C11.8087 0.532113 11.6505 0.5 11.4908 0.5C11.331 0.5 11.1728 0.532113 11.0253 0.593685C10.8778 0.655257 10.7439 0.745375 10.631 0.859126L0.855262 10.697C0.632481 10.9299 0.505475 11.239 0.5 11.5622C0.502522 11.8805 0.630333 12.1852 0.855262 12.409L1.56556 13.142C1.79267 13.366 2.09793 13.4919 2.41595 13.4919C2.73397 13.4919 3.03923 13.366 3.26634 13.142L11.4908 4.86554L19.7152 13.142C19.8247 13.26 19.9582 13.3531 20.1065 13.4148C20.2548 13.4764 20.4145 13.5051 20.5749 13.4993C20.7322 13.5024 20.8884 13.4727 21.0333 13.4111C21.1782 13.3495 21.3087 13.2576 21.4162 13.142L22.1452 12.4274C22.2577 12.3154 22.3469 12.1821 22.4078 12.0352C22.4688 11.8883 22.5 11.7306 22.5 11.5714C22.5 11.4122 22.4688 11.2545 22.4078 11.1075C22.3469 10.9606 22.2577 10.8273 22.1452 10.7153" fill="#95A5A6"/>
</svg>
