<svg width="18" height="18" viewBox="0 0 18 18" fill="none" xmlns="http://www.w3.org/2000/svg">
<path d="M16.5821 1.64342C15.6978 0.583655 14.4784 0 13.1484 0C10.8233 0 9.62118 1.41577 9.02211 2.60342C9.01466 2.61815 9.00728 2.63292 9 2.64765C8.99272 2.63292 8.98534 2.61815 8.97789 2.60342C8.37882 1.41577 7.17666 0 4.85156 0C3.52164 0 2.30221 0.583655 1.41785 1.64346C0.490289 2.75507 0 4.27671 0 6.04391C0 9.79646 2.81886 12.2845 5.30585 14.4796C6.54507 15.5734 7.71557 16.6065 8.45227 17.6896C8.58572 17.8859 8.78713 18 9 18C9.21287 18 9.41428 17.8859 9.54777 17.6897C9.92668 17.1326 10.4534 16.5402 11.2055 15.8254C11.5082 15.5376 11.5565 15.0139 11.3133 14.6556C11.0702 14.2974 10.6276 14.2401 10.3248 14.5279C9.79425 15.0322 9.36028 15.4883 9.00032 15.9217C8.2055 14.9629 7.19951 14.075 6.14661 13.1457C3.81611 11.0887 1.40625 8.9616 1.40625 6.04391C1.40625 3.46515 2.82301 1.66414 4.85156 1.66414C6.17059 1.66414 7.14456 2.25137 7.74633 3.40949C8.2241 4.3288 8.29842 5.28572 8.29891 5.29163C8.32711 5.7251 8.63248 6.06163 8.99982 6.06163C9.36724 6.06163 9.67257 5.72876 9.70077 5.29529C9.70151 5.28572 9.77583 4.3288 10.2536 3.40949C10.8554 2.25137 11.8294 1.66414 13.1484 1.66414C15.177 1.66414 16.5938 3.46515 16.5938 6.04391C16.5938 8.45849 14.9325 10.3306 13.1374 11.9939C12.8316 12.2772 12.7778 12.8002 13.0172 13.162C13.2565 13.5238 13.6985 13.5875 14.0043 13.3042C14.8583 12.5129 15.9406 11.4437 16.7368 10.188C17.5868 8.84744 18 7.49187 18 6.04391C18 4.27671 17.5097 2.75507 16.5821 1.64342Z" fill="white"/>
</svg>
